{
  "designerVersion" : "1.8.39",
  "id" : "validerDemandeConges",
  "name" : "validerDemandeConges",
  "lastUpdate" : 1552484796304,
  "rows" : [ [ {
    "type" : "container",
    "dimension" : {
      "xs" : 12
    },
    "propertyValues" : { },
    "reference" : "bbd79ddd-e479-4833-8423-64c6a9201e78",
    "hasValidationError" : false,
    "id" : "pbContainer",
    "rows" : [ [ {
      "type" : "component",
      "dimension" : {
        "xs" : 12
      },
      "propertyValues" : {
        "labelHidden" : {
          "type" : "constant",
          "value" : false
        },
        "readonly" : {
          "type" : "constant",
          "value" : false
        },
        "level" : {
          "type" : "constant",
          "value" : "Level 2"
        },
        "cssClasses" : {
          "type" : "constant",
          "value" : ""
        },
        "widgetId" : {
          "type" : "constant",
          "value" : "pbTitle"
        },
        "isDisplayed" : {
          "type" : "constant",
          "value" : true
        },
        "label" : {
          "type" : "interpolation"
        },
        "text" : {
          "type" : "interpolation",
          "value" : "Valider une demande de congés"
        },
        "alignment" : {
          "type" : "constant",
          "value" : "center"
        },
        "class" : {
          "type" : "constant",
          "value" : "org.bonitasoft.web.designer.experimental.parametrizedWidget.TitleWidget"
        },
        "dimension" : {
          "type" : "constant",
          "value" : 12
        },
        "hidden" : {
          "type" : "constant",
          "value" : false
        }
      },
      "reference" : "b355b455-c9fe-4efe-b16c-35c091917796",
      "hasValidationError" : false,
      "id" : "pbTitle"
    } ], [ {
      "type" : "component",
      "dimension" : {
        "xs" : 12
      },
      "propertyValues" : {
        "labelHidden" : {
          "type" : "constant",
          "value" : false
        },
        "readonly" : {
          "type" : "constant",
          "value" : false
        },
        "cssClasses" : {
          "type" : "constant",
          "value" : ""
        },
        "widgetId" : {
          "type" : "constant",
          "value" : "pbText"
        },
        "isDisplayed" : {
          "type" : "constant",
          "value" : true
        },
        "label" : {
          "type" : "interpolation"
        },
        "text" : {
          "type" : "interpolation",
          "value" : "<b>Demandeur :</b> {{demandeur.firstname}} {{demandeur.lastname}}"
        },
        "alignment" : {
          "type" : "constant",
          "value" : "center"
        },
        "class" : {
          "type" : "constant",
          "value" : "org.bonitasoft.web.designer.experimental.parametrizedWidget.TextWidget"
        },
        "dimension" : {
          "type" : "constant",
          "value" : 12
        },
        "hidden" : {
          "type" : "constant",
          "value" : false
        },
        "allowHTML" : {
          "type" : "constant",
          "value" : true
        }
      },
      "reference" : "1f011e6b-09b2-4512-992d-81b8e68f73ec",
      "hasValidationError" : false,
      "id" : "pbText"
    } ], [ {
      "type" : "component",
      "dimension" : {
        "xs" : 12
      },
      "propertyValues" : {
        "cssClasses" : {
          "type" : "constant",
          "value" : ""
        },
        "hidden" : {
          "type" : "constant",
          "value" : false
        },
        "allowHTML" : {
          "type" : "constant",
          "value" : true
        },
        "text" : {
          "type" : "interpolation",
          "value" : "<b>Date de début :</b> {{demande.dateDebut | date : 'dd/MM/yyyy'}}"
        },
        "alignment" : {
          "type" : "constant",
          "value" : "center"
        }
      },
      "reference" : "78b339a7-33f8-4480-960a-938b76b4489c",
      "hasValidationError" : false,
      "id" : "pbText"
    } ], [ {
      "type" : "component",
      "dimension" : {
        "xs" : 12
      },
      "propertyValues" : {
        "cssClasses" : {
          "type" : "constant",
          "value" : ""
        },
        "hidden" : {
          "type" : "constant",
          "value" : false
        },
        "allowHTML" : {
          "type" : "constant",
          "value" : true
        },
        "text" : {
          "type" : "interpolation",
          "value" : "<b>Nombre de jours :</b> {{demande.nombreJours}}"
        },
        "alignment" : {
          "type" : "constant",
          "value" : "center"
        }
      },
      "reference" : "26760859-a236-42b9-8d2c-5ca41d78e286",
      "hasValidationError" : false,
      "id" : "pbText"
    } ], [ {
      "type" : "formContainer",
      "dimension" : {
        "xs" : 12
      },
      "propertyValues" : {
        "cssClasses" : {
          "type" : "constant",
          "value" : ""
        },
        "hidden" : {
          "type" : "constant",
          "value" : false
        }
      },
      "reference" : "2146250b-00ae-421a-b232-33b87931e814",
      "hasValidationError" : false,
      "id" : "pbFormContainer",
      "container" : {
        "type" : "container",
        "dimension" : {
          "xs" : 12
        },
        "propertyValues" : { },
        "reference" : "feb8ce1d-3111-435f-958b-479b9b50f9b9",
        "hasValidationError" : false,
        "id" : "pbContainer",
        "rows" : [ [ {
          "type" : "component",
          "dimension" : {
            "xs" : 6
          },
          "propertyValues" : {
            "cssClasses" : {
              "type" : "constant",
              "value" : ""
            },
            "hidden" : {
              "type" : "constant",
              "value" : false
            },
            "disabled" : {
              "type" : "constant",
              "value" : false
            },
            "label" : {
              "type" : "interpolation",
              "value" : "Refuser"
            },
            "alignment" : {
              "type" : "constant",
              "value" : "right"
            },
            "buttonStyle" : {
              "type" : "constant",
              "value" : "danger"
            },
            "action" : {
              "type" : "constant",
              "value" : "Submit task"
            },
            "url" : {
              "type" : "interpolation"
            },
            "dataToSend" : {
              "type" : "constant",
              "value" : "{\"demandeInput\": {\"estApprouvee\":false}}"
            },
            "dataFromSuccess" : {
              "type" : "variable",
              "value" : ""
            },
            "closeOnSuccess" : {
              "type" : "constant",
              "value" : false
            },
            "dataFromError" : {
              "type" : "variable",
              "value" : "erreur"
            },
            "targetUrlOnSuccess" : {
              "type" : "interpolation",
              "value" : "/bonita"
            },
            "collectionToModify" : {
              "type" : "variable"
            },
            "modalId" : {
              "type" : "constant",
              "value" : ""
            },
            "collectionPosition" : {
              "type" : "constant",
              "value" : "Last"
            },
            "valueToAdd" : {
              "type" : "constant"
            },
            "removeItem" : {
              "type" : "variable"
            }
          },
          "reference" : "063344f6-20a6-4ed3-bafc-c87081b9404e",
          "hasValidationError" : false,
          "id" : "pbButton"
        }, {
          "type" : "component",
          "dimension" : {
            "xs" : 6
          },
          "propertyValues" : {
            "cssClasses" : {
              "type" : "constant",
              "value" : ""
            },
            "hidden" : {
              "type" : "constant",
              "value" : false
            },
            "disabled" : {
              "type" : "constant",
              "value" : false
            },
            "label" : {
              "type" : "interpolation",
              "value" : "Approuver"
            },
            "alignment" : {
              "type" : "constant",
              "value" : "left"
            },
            "buttonStyle" : {
              "type" : "constant",
              "value" : "success"
            },
            "action" : {
              "type" : "constant",
              "value" : "Submit task"
            },
            "url" : {
              "type" : "interpolation"
            },
            "dataToSend" : {
              "type" : "constant",
              "value" : "{\"demandeInput\": {\"estApprouvee\":true}}"
            },
            "dataFromSuccess" : {
              "type" : "variable",
              "value" : ""
            },
            "closeOnSuccess" : {
              "type" : "constant",
              "value" : false
            },
            "dataFromError" : {
              "type" : "variable",
              "value" : "erreur"
            },
            "targetUrlOnSuccess" : {
              "type" : "interpolation",
              "value" : "/bonita"
            },
            "collectionToModify" : {
              "type" : "variable"
            },
            "modalId" : {
              "type" : "constant",
              "value" : ""
            },
            "collectionPosition" : {
              "type" : "constant",
              "value" : "Last"
            },
            "valueToAdd" : {
              "type" : "constant"
            },
            "removeItem" : {
              "type" : "variable"
            }
          },
          "reference" : "59dce7e3-e1b9-4023-b004-bc728cad2172",
          "hasValidationError" : false,
          "id" : "pbButton"
        } ], [ {
          "type" : "component",
          "dimension" : {
            "xs" : 12
          },
          "propertyValues" : {
            "cssClasses" : {
              "type" : "constant",
              "value" : "text-danger"
            },
            "hidden" : {
              "type" : "expression",
              "value" : "!erreur"
            },
            "allowHTML" : {
              "type" : "constant",
              "value" : true
            },
            "text" : {
              "type" : "interpolation",
              "value" : "<b>Erreur :</b> {{erreur | json}}"
            },
            "alignment" : {
              "type" : "constant",
              "value" : "center"
            }
          },
          "reference" : "decff21b-930a-49cd-8d8f-fde17b829624",
          "hasValidationError" : false,
          "id" : "pbText"
        } ] ]
      }
    } ] ]
  } ] ],
  "assets" : [ {
    "id" : "f6cc3597-5028-418c-be46-37d04fa33e0c",
    "name" : "style.css",
    "type" : "css",
    "order" : 0,
    "external" : false
  } ],
  "inactiveAssets" : [ ],
  "data" : {
    "task" : {
      "type" : "url",
      "value" : "../API/bpm/userTask/{{taskId}}",
      "exposed" : false
    },
    "context" : {
      "type" : "url",
      "value" : "../API/bpm/userTask/{{taskId}}/context",
      "exposed" : false
    },
    "taskId" : {
      "type" : "urlparameter",
      "value" : "id",
      "exposed" : false
    },
    "demande" : {
      "type" : "url",
      "value" : "../{{context.demande_ref.link}}",
      "exposed" : false
    },
    "demandeur" : {
      "type" : "url",
      "value" : "../API/identity/user/{{demande.idDemandeur}}",
      "exposed" : false
    },
    "erreur" : {
      "type" : "constant",
      "exposed" : false
    },
    "approuve" : {
      "type" : "json",
      "value" : "{\"demandeInput\": {\"estApprouvee\":false}}",
      "exposed" : false
    }
  },
  "hasValidationError" : false,
  "uuid" : "b88d99a2-9130-47e6-a798-0c7d076d301b",
  "type" : "form",
  "description" : "Page generated with Bonita UI designer",
  "displayName" : "newForm"
}