{
  "designerVersion" : "1.8.39",
  "id" : "remplirDemandesConges",
  "name" : "remplirDemandesConges",
  "lastUpdate" : 1552471947794,
  "rows" : [ [ {
    "type" : "formContainer",
    "dimension" : {
      "xs" : 12
    },
    "propertyValues" : {
      "cssClasses" : {
        "type" : "constant",
        "value" : ""
      },
      "hidden" : {
        "type" : "constant",
        "value" : false
      }
    },
    "reference" : "f73c2e8d-937c-4a26-bbe1-b174674a8cb6",
    "hasValidationError" : false,
    "id" : "pbFormContainer",
    "container" : {
      "type" : "container",
      "dimension" : {
        "xs" : 12
      },
      "propertyValues" : { },
      "reference" : "222322e6-7315-4dbe-80f5-b62ad7d2731a",
      "hasValidationError" : false,
      "id" : "pbContainer",
      "rows" : [ [ {
        "type" : "component",
        "dimension" : {
          "xs" : 12
        },
        "propertyValues" : {
          "labelHidden" : {
            "type" : "constant",
            "value" : false
          },
          "readonly" : {
            "type" : "constant",
            "value" : false
          },
          "level" : {
            "type" : "constant",
            "value" : "Level 2"
          },
          "cssClasses" : {
            "type" : "constant",
            "value" : ""
          },
          "widgetId" : {
            "type" : "constant",
            "value" : "pbTitle"
          },
          "isDisplayed" : {
            "type" : "constant",
            "value" : true
          },
          "label" : {
            "type" : "interpolation"
          },
          "text" : {
            "type" : "interpolation",
            "value" : "Saisir une demande congés"
          },
          "alignment" : {
            "type" : "constant",
            "value" : "center"
          },
          "class" : {
            "type" : "constant",
            "value" : "org.bonitasoft.web.designer.experimental.parametrizedWidget.TitleWidget"
          },
          "dimension" : {
            "type" : "constant",
            "value" : 12
          },
          "hidden" : {
            "type" : "constant",
            "value" : false
          }
        },
        "reference" : "e964f8e7-91f2-406e-a66b-ec028fdbebf0",
        "hasValidationError" : false,
        "id" : "pbTitle"
      } ], [ {
        "type" : "container",
        "dimension" : {
          "xs" : 12
        },
        "propertyValues" : {
          "repeatedCollection" : {
            "type" : "variable"
          },
          "labelHidden" : {
            "type" : "constant",
            "value" : false
          },
          "readonly" : {
            "type" : "constant",
            "value" : false
          },
          "cssClasses" : {
            "type" : "constant",
            "value" : ""
          },
          "widgetId" : {
            "type" : "constant"
          },
          "isDisplayed" : {
            "type" : "constant",
            "value" : true
          },
          "label" : {
            "type" : "interpolation"
          },
          "alignment" : {
            "type" : "constant",
            "value" : "left"
          },
          "class" : {
            "type" : "constant",
            "value" : "org.bonitasoft.web.designer.experimental.parametrizedWidget.WidgetContainer"
          },
          "dimension" : {
            "type" : "constant",
            "value" : 12
          }
        },
        "reference" : "a585c38f-0579-41ce-90d7-65d8f4ed50f2",
        "hasValidationError" : false,
        "id" : "pbContainer",
        "rows" : [ [ {
          "type" : "component",
          "dimension" : {
            "xs" : 12
          },
          "propertyValues" : {
            "dateFormat" : {
              "type" : "constant",
              "value" : "dd/MM/yyyy"
            },
            "cssClasses" : {
              "type" : "constant",
              "value" : ""
            },
            "widgetId" : {
              "type" : "constant",
              "value" : "pbDatePicker"
            },
            "isDisplayed" : {
              "type" : "constant",
              "value" : true
            },
            "labelWidth" : {
              "type" : "constant",
              "value" : 1
            },
            "label" : {
              "type" : "interpolation",
              "value" : "Date de début"
            },
            "type" : {
              "type" : "constant"
            },
            "required" : {
              "type" : "constant",
              "value" : true
            },
            "todayLabel" : {
              "type" : "constant",
              "value" : "Aujourd'hui"
            },
            "labelHidden" : {
              "type" : "constant",
              "value" : false
            },
            "readonly" : {
              "type" : "constant",
              "value" : false
            },
            "showToday" : {
              "type" : "constant",
              "value" : true
            },
            "labelPosition" : {
              "type" : "constant",
              "value" : "top"
            },
            "placeholder" : {
              "type" : "constant",
              "value" : "jj/mm/aaaa"
            },
            "alignment" : {
              "type" : "constant",
              "value" : "left"
            },
            "class" : {
              "type" : "constant",
              "value" : "org.bonitasoft.web.designer.experimental.parametrizedWidget.DatePickerWidget"
            },
            "dimension" : {
              "type" : "constant",
              "value" : 12
            },
            "value" : {
              "type" : "variable",
              "value" : "formInput.demandeInput.dateDebut"
            },
            "hidden" : {
              "type" : "constant",
              "value" : false
            },
            "readOnly" : {
              "type" : "constant",
              "value" : false
            }
          },
          "reference" : "e6646057-78ab-4851-8af2-7fa277f93638",
          "hasValidationError" : false,
          "id" : "pbDatePicker"
        } ], [ {
          "type" : "component",
          "dimension" : {
            "xs" : 12
          },
          "propertyValues" : {
            "cssClasses" : {
              "type" : "constant",
              "value" : ""
            },
            "widgetId" : {
              "type" : "constant",
              "value" : "pbInput"
            },
            "isDisplayed" : {
              "type" : "constant",
              "value" : true
            },
            "labelWidth" : {
              "type" : "constant",
              "value" : 1
            },
            "label" : {
              "type" : "interpolation",
              "value" : "Nombre Jours"
            },
            "type" : {
              "type" : "constant",
              "value" : "number"
            },
            "required" : {
              "type" : "constant",
              "value" : true
            },
            "labelHidden" : {
              "type" : "constant",
              "value" : false
            },
            "readonly" : {
              "type" : "constant",
              "value" : false
            },
            "labelPosition" : {
              "type" : "constant",
              "value" : "top"
            },
            "placeholder" : {
              "type" : "constant",
              "value" : "Nombre de jours de congés"
            },
            "alignment" : {
              "type" : "constant",
              "value" : "left"
            },
            "class" : {
              "type" : "constant",
              "value" : "org.bonitasoft.web.designer.experimental.parametrizedWidget.InputWidget"
            },
            "dimension" : {
              "type" : "constant",
              "value" : 12
            },
            "value" : {
              "type" : "variable",
              "value" : "formInput.demandeInput.nombreJours"
            },
            "hidden" : {
              "type" : "constant",
              "value" : false
            },
            "minLength" : {
              "type" : "constant",
              "value" : ""
            },
            "maxLength" : {
              "type" : "constant",
              "value" : ""
            },
            "readOnly" : {
              "type" : "constant",
              "value" : false
            },
            "min" : {
              "type" : "constant",
              "value" : 1
            },
            "max" : {
              "type" : "constant"
            },
            "step" : {
              "type" : "constant",
              "value" : 1
            }
          },
          "reference" : "3329286f-82c9-4aa1-8073-c40f658e9bad",
          "hasValidationError" : false,
          "id" : "pbInput"
        } ] ]
      } ], [ {
        "type" : "component",
        "dimension" : {
          "xs" : 12
        },
        "propertyValues" : {
          "removeItem" : {
            "type" : "variable"
          },
          "cssClasses" : {
            "type" : "constant",
            "value" : ""
          },
          "widgetId" : {
            "type" : "constant",
            "value" : "pbButton"
          },
          "buttonStyle" : {
            "type" : "constant",
            "value" : "primary"
          },
          "isDisplayed" : {
            "type" : "constant",
            "value" : true
          },
          "label" : {
            "type" : "interpolation",
            "value" : "Soumettre"
          },
          "dataToSend" : {
            "type" : "expression",
            "value" : "formOutput"
          },
          "labelHidden" : {
            "type" : "constant",
            "value" : false
          },
          "readonly" : {
            "type" : "constant",
            "value" : false
          },
          "collectionPosition" : {
            "type" : "constant"
          },
          "targetUrlOnSuccess" : {
            "type" : "interpolation",
            "value" : "/bonita"
          },
          "action" : {
            "type" : "constant",
            "value" : "Start process"
          },
          "collectionToModify" : {
            "type" : "variable"
          },
          "valueToAdd" : {
            "type" : "expression"
          },
          "disabled" : {
            "type" : "expression",
            "value" : "$form.$invalid"
          },
          "alignment" : {
            "type" : "constant",
            "value" : "center"
          },
          "class" : {
            "type" : "constant",
            "value" : "org.bonitasoft.web.designer.experimental.parametrizedWidget.ButtonWidget"
          },
          "dimension" : {
            "type" : "constant",
            "value" : 12
          },
          "hidden" : {
            "type" : "constant",
            "value" : false
          },
          "url" : {
            "type" : "interpolation"
          },
          "dataFromSuccess" : {
            "type" : "variable",
            "value" : ""
          },
          "closeOnSuccess" : {
            "type" : "constant",
            "value" : false
          },
          "dataFromError" : {
            "type" : "variable",
            "value" : "erreur"
          },
          "modalId" : {
            "type" : "constant",
            "value" : ""
          }
        },
        "reference" : "f156cbc0-e601-4ebf-a7ab-430d45747c3c",
        "hasValidationError" : false,
        "id" : "pbButton"
      } ], [ {
        "type" : "component",
        "dimension" : {
          "xs" : 12
        },
        "propertyValues" : {
          "cssClasses" : {
            "type" : "expression",
            "value" : "text-danger"
          },
          "hidden" : {
            "type" : "expression",
            "value" : "!erreur"
          },
          "allowHTML" : {
            "type" : "constant",
            "value" : true
          },
          "text" : {
            "type" : "interpolation",
            "value" : "<b>Erreur :</b> {{erreur | json}}"
          },
          "alignment" : {
            "type" : "constant",
            "value" : "left"
          }
        },
        "reference" : "234159aa-baed-4def-be7d-510168222db4",
        "hasValidationError" : false,
        "id" : "pbText"
      } ] ]
    }
  } ] ],
  "assets" : [ {
    "id" : "b4d5e053-5800-41c9-9455-7c68efdde4f0",
    "name" : "style.css",
    "type" : "css",
    "order" : 0,
    "external" : false
  } ],
  "inactiveAssets" : [ ],
  "data" : {
    "formInput" : {
      "type" : "json",
      "value" : "{\r\n  \"demandeInput\" : {\r\n    \"dateDebut\" : null,\r\n    \"nombreJours\" : null\r\n  }\r\n}",
      "exposed" : false
    },
    "formOutput" : {
      "type" : "expression",
      "value" : "return {\n\t'demandeInput': $data.formInput.demandeInput\n};",
      "exposed" : false
    },
    "erreur" : {
      "type" : "constant",
      "exposed" : false
    }
  },
  "hasValidationError" : false,
  "uuid" : "3fe422a0-02ac-45f8-908c-3ee70501a6d9",
  "type" : "form",
  "description" : "Page generated with Bonita UI designer",
  "displayName" : "newForm"
}